{
   "fileName":"alpine.simg",
   "imageName":"some_random_text",
   "tag":"",
   "runtimeType":"singularity",
   "processArgs":"ls",
   "processEnv":"",
   "inputFolder":"/input",
   "outputFolder":"/output",
   "imageType":"simg",
   "title":"alpine_new",
   "author":"ku",
   "description":"alpine_test",
   "handle":"true"
}
